First Name,Phone,Email,company
Diane,866.411.4411 x201,dlai@411.ca,International Business machines
Diane,866.411.4411,dlai@411.ca,IBM
Sunita,962.300.7276,sunita@gmail.com,International Business machines corp.
Sunita,962.300.7276,sunita@aashnacloudtech.com,Massachusetts Institute of Technology
Madiha,,madihasultan@outlook.com,GE
Madiha,,madihasultan1@outlook.com,General Electrics
Diane,866.411.4411,dlai@411.ca,MIT
Diane,866.411.4411 x201,dlai@411.ca,Bombardier Aerospace
Sunita,962.300.7276,sunita@gmail.com,Bombardier
Sunita,962.300.7276,madihasultan1@outlook.com,GM
Sunita,962.300.7275,madihasultan1@outlook.com,General Motors
Madiha,,madihasultan@outlook.com,GE
Brian,866.411.4411,brian@brianhogg.com,Massachusetts Institute of Technology
